extension_tb.vcd
$date
	Fri May 22 16:14:07 2026
$end
$version
	Icarus Verilog
$end
$timescale
	1ps
$end
$scope module extension_tb $end
$var reg 1 ! clockSignal $end
$var reg 16 " pmem_in [15:0] $end
$var reg 1 # pmem_write $end
$var reg 1 $ resetSignal $end
$var reg 1 % startSignal $end
$var integer 32 & fail_count [31:0] $end
$var integer 32 ' pass_count [31:0] $end
$var integer 32 ( test_num [31:0] $end
$scope module dut $end
$var wire 1 ! clk $end
$var wire 16 ) pmem_in [15:0] $end
$var wire 1 # pmem_write $end
$var wire 1 $ rst $end
$var wire 1 % start $end
$var wire 16 * s_out [15:0] $end
$var wire 16 + r2_out [15:0] $end
$var wire 16 , r1_out [15:0] $end
$var wire 16 - r0_out [15:0] $end
$var wire 3 . load_reg_code [2:0] $end
$var wire 9 / load [8:0] $end
$var wire 16 0 instruction [15:0] $end
$var wire 1 1 inc_pc $end
$var wire 16 2 immediate [15:0] $end
$var wire 1 3 imm_enable $end
$var wire 16 4 g_out [15:0] $end
$var wire 3 5 drive_reg_code [2:0] $end
$var wire 9 6 drive [8:0] $end
$var wire 1 7 dmem_write $end
$var wire 16 8 dmem_out [15:0] $end
$var wire 6 9 dmem_address [5:0] $end
$var wire 1 : branch $end
$var wire 16 ; alu_to_g [15:0] $end
$var wire 2 < alu_op [1:0] $end
$var wire 6 = address [5:0] $end
$var wire 16 > a_to_alu [15:0] $end
$var reg 16 ? bus [15:0] $end
$scope module a $end
$var wire 1 ! clk $end
$var wire 16 @ in [15:0] $end
$var wire 1 A load $end
$var wire 1 $ rst $end
$var reg 16 B out [15:0] $end
$upscope $end
$scope module control_unit $end
$var wire 1 ! clk $end
$var wire 1 $ rst $end
$var wire 16 C status [15:0] $end
$var wire 16 D instruction [15:0] $end
$var reg 2 E alu_op [1:0] $end
$var reg 1 : branch $end
$var reg 6 F cur_state [5:0] $end
$var reg 6 G dmem_address [5:0] $end
$var reg 1 7 dmem_write $end
$var reg 3 H drive_reg [2:0] $end
$var reg 1 3 imm_enable $end
$var reg 16 I immediate [15:0] $end
$var reg 1 1 inc_pc $end
$var reg 3 J ldi_reg_code [2:0] $end
$var reg 3 K load_reg [2:0] $end
$var reg 6 L next_state [5:0] $end
$upscope $end
$scope module data_memory $end
$var wire 6 M address [5:0] $end
$var wire 1 ! clk $end
$var wire 16 N data_in [15:0] $end
$var wire 16 O data_out [15:0] $end
$var wire 1 7 write_enable $end
$upscope $end
$scope module drive_dec $end
$var wire 3 P reg_code [2:0] $end
$var reg 9 Q enable [8:0] $end
$upscope $end
$scope module g $end
$var wire 1 ! clk $end
$var wire 1 R load $end
$var wire 1 $ rst $end
$var wire 16 S in [15:0] $end
$var reg 16 T out [15:0] $end
$upscope $end
$scope module load_dec $end
$var wire 3 U reg_code [2:0] $end
$var reg 9 V enable [8:0] $end
$upscope $end
$scope module logic_unit $end
$var wire 2 W alu_op [1:0] $end
$var wire 16 X bus_in [15:0] $end
$var wire 16 Y reg_in [15:0] $end
$var reg 16 Z out [15:0] $end
$upscope $end
$scope module program_counter $end
$var wire 1 : branch $end
$var wire 16 [ bus [15:0] $end
$var wire 1 ! clk $end
$var wire 1 1 inc_pc $end
$var wire 1 \ low_val $end
$var wire 1 $ rst $end
$var wire 1 % start $end
$var parameter 32 ] num_bits $end
$var reg 6 ^ address [5:0] $end
$var reg 7 _ temp [6:0] $end
$var reg 7 ` temp1 [6:0] $end
$var reg 7 a temp2 [6:0] $end
$upscope $end
$scope module program_memory $end
$var wire 6 b address [5:0] $end
$var wire 1 ! clk $end
$var wire 16 c data_in [15:0] $end
$var wire 16 d data_out [15:0] $end
$var wire 1 # write_enable $end
$upscope $end
$scope module r0 $end
$var wire 1 ! clk $end
$var wire 16 e in [15:0] $end
$var wire 1 f load $end
$var wire 1 $ rst $end
$var reg 16 g out [15:0] $end
$upscope $end
$scope module r1 $end
$var wire 1 ! clk $end
$var wire 16 h in [15:0] $end
$var wire 1 i load $end
$var wire 1 $ rst $end
$var reg 16 j out [15:0] $end
$upscope $end
$scope module r2 $end
$var wire 1 ! clk $end
$var wire 16 k in [15:0] $end
$var wire 1 l load $end
$var wire 1 $ rst $end
$var reg 16 m out [15:0] $end
$upscope $end
$scope module sreg $end
$var wire 1 ! clk $end
$var wire 16 n in [15:0] $end
$var wire 1 o load $end
$var wire 1 $ rst $end
$var reg 16 p out [15:0] $end
$upscope $end
$upscope $end
$scope task check $end
$var reg 16 q actual [15:0] $end
$var reg 16 r expected [15:0] $end
$var reg 400 s name [399:0] $end
$upscope $end
$scope task wait_cycles $end
$var integer 32 t i [31:0] $end
$var integer 32 u n [31:0] $end
$upscope $end
$upscope $end
$enddefinitions $end
$comment Show the parameter values. $end
$dumpall
b110 ]
$end
#0
$dumpvars
b11 u
b0 t
bx s
bx r
bx q
b0 p
0o
b0 n
b0 m
0l
b0 k
b0 j
0i
b0 h
b0 g
0f
b0 e
b0 d
b0 c
b0 b
bx a
bx `
bx _
b0 ^
0\
b0 [
b0 Z
b0 Y
b0 X
b0 W
b0 V
b111 U
b0 T
b0 S
0R
b0 Q
b111 P
bx O
b0 N
b0 M
b1 L
b111 K
b0 J
b0 I
b111 H
b0 G
b0 F
b0 E
b0 D
b0 C
b0 B
0A
b0 @
b0 ?
b0 >
b0 =
b0 <
b0 ;
0:
b0 9
bx 8
07
b0 6
b111 5
b0 4
03
b0 2
01
b0 0
b0 /
b111 .
b0 -
b0 ,
b0 +
b0 *
b0 )
b0 (
b0 '
b0 &
0%
1$
0#
b0 "
0!
$end
#5000
1!
#10000
b1 t
0!
#15000
1!
#20000
b10 t
0!
#25000
1!
#30000
0$
b0 t
0!
#35000
b10 L
11
b1 F
1!
#40000
b1 t
0!
#45000
1f
b101 ;
b101 S
b101 Z
b1 /
b1 V
b101 ?
b101 @
b101 N
b101 X
b101 [
b101 e
b101 h
b101 k
b101 n
b0 L
b101 2
b101 I
13
b0 .
b0 K
b0 U
b101 5
b101 H
b101 P
11
b101 0
b101 D
b101 d
b1 =
b1 ^
b1 b
b10 F
1!
#50000
b10 t
0!
#55000
b0 ;
b0 S
b0 Z
0f
b0 ?
b0 @
b0 N
b0 X
b0 [
b0 e
b0 h
b0 k
b0 n
b0 /
b0 V
b1 L
01
b0 2
b0 I
03
b111 5
b111 H
b111 P
b111 .
b111 K
b111 U
b0 F
b10000000000 0
b10000000000 D
b10000000000 d
b10 =
b10 ^
b10 b
b101 -
b101 g
1!
#60000
b1 '
b1 (
b101001000110000001000000110000101100110011101000110010101110010001000000100110001000100010010010010000001110010001100000010110000110101 s
b101 r
b101 q
b0 t
0!
#65000
b10 L
11
b1 J
b1 F
1!
#70000
b1 t
0!
#75000
1i
b11 ;
b11 S
b11 Z
b10 /
b10 V
b11 ?
b11 @
b11 N
b11 X
b11 [
b11 e
b11 h
b11 k
b11 n
b0 L
b11 2
b11 I
13
b1 .
b1 K
b1 U
b101 5
b101 H
b101 P
11
b10 F
b11 0
b11 D
b11 d
b11 =
b11 ^
b11 b
1!
#80000
b10 t
0!
#85000
0i
b0 ;
b0 S
b0 Z
b0 /
b0 V
b0 ?
b0 @
b0 N
b0 X
b0 [
b0 e
b0 h
b0 k
b0 n
b1010 L
01
b0 2
b0 I
03
b111 5
b111 H
b111 P
b111 .
b111 K
b111 U
b11 ,
b11 j
b100000000000000 0
b100000000000000 D
b100000000000000 d
b100 =
b100 ^
b100 b
b0 F
1!
#90000
b100 u
b10 '
b10 (
b101001000110001001000000110000101100110011101000110010101110010001000000100110001000100010010010010000001110010001100010010110000110011 s
b11 r
b11 q
b0 t
0!
#95000
1A
b101 ;
b101 S
b101 Z
b10000 /
b10000 V
b1 6
b1 Q
b101 ?
b101 @
b101 N
b101 X
b101 [
b101 e
b101 h
b101 k
b101 n
b1011 L
b100 .
b100 K
b100 U
b0 5
b0 H
b0 P
b1010 F
1!
#100000
b1 t
0!
#105000
0A
1R
b0 6
b0 Q
b1 ?
b1 @
b1 N
b1 X
b1 [
b1 e
b1 h
b1 k
b1 n
b1000 /
b1000 V
b110 ;
b110 S
b110 Z
b1100 L
13
b1 2
b1 I
b101 5
b101 H
b101 P
b11 .
b11 K
b11 U
b101 >
b101 B
b101 Y
b1011 F
1!
#110000
b10 t
0!
#115000
b1011 ;
b1011 S
b1011 Z
0R
1f
b1000 6
b1000 Q
b110 ?
b110 @
b110 N
b110 X
b110 [
b110 e
b110 h
b110 k
b110 n
b1 /
b1 V
11
b0 L
b0 2
b0 I
03
b11 5
b11 H
b11 P
b0 .
b0 K
b0 U
b1100 F
b110 4
b110 T
1!
#120000
b11 t
0!
#125000
0f
b101 ;
b101 S
b101 Z
b0 6
b0 Q
b0 /
b0 V
b0 ?
b0 @
b0 N
b0 X
b0 [
b0 e
b0 h
b0 k
b0 n
b1101 L
01
b111 5
b111 H
b111 P
b111 .
b111 K
b111 U
b110 -
b110 g
b101010000000000 0
b101010000000000 D
b101010000000000 d
b101 =
b101 ^
b101 b
b0 F
1!
#130000
b11 '
b11 (
b101001000110000001000000110000101100110011101000110010101110010001000000100100101001110010000110010000001110010001100000010000000101000001101010010101100110001001111010011011000101001 s
b110 r
b110 q
b0 t
0!
#135000
1A
b1000 ;
b1000 S
b1000 Z
b10000 /
b10000 V
b10 6
b10 Q
b11 ?
b11 @
b11 N
b11 X
b11 [
b11 e
b11 h
b11 k
b11 n
b1110 L
b100 .
b100 K
b100 U
b1 5
b1 H
b1 P
b1101 F
1!
#140000
b1 t
0!
#145000
0A
1R
b0 6
b0 Q
b1 ?
b1 @
b1 N
b1 X
b1 [
b1 e
b1 h
b1 k
b1 n
b1000 /
b1000 V
b10 ;
b10 S
b10 Z
b1111 L
b1 <
b1 E
b1 W
13
b1 2
b1 I
b101 5
b101 H
b101 P
b11 .
b11 K
b11 U
b11 >
b11 B
b11 Y
b1110 F
1!
#150000
b10 t
0!
#155000
0R
1i
b101 ;
b101 S
b101 Z
b1000 6
b1000 Q
b10 ?
b10 @
b10 N
b10 X
b10 [
b10 e
b10 h
b10 k
b10 n
b10 /
b10 V
11
b0 L
b0 2
b0 I
03
b0 <
b0 E
b0 W
b11 5
b11 H
b11 P
b1 .
b1 K
b1 U
b1111 F
b10 4
b10 T
1!
#160000
b11 t
0!
#165000
0i
b11 ;
b11 S
b11 Z
b0 6
b0 Q
b0 /
b0 V
b0 ?
b0 @
b0 N
b0 X
b0 [
b0 e
b0 h
b0 k
b0 n
b10000 L
01
b111 5
b111 H
b111 P
b111 .
b111 K
b111 U
b10 ,
b10 j
b110000100000000 0
b110000100000000 D
b110000100000000 d
b110 =
b110 ^
b110 b
b0 F
1!
#170000
b100 '
b100 (
b101001000110001001000000110000101100110011101000110010101110010001000000100010001000101010000110010000001110010001100010010000000101000001100110010110100110001001111010011001000101001 s
b10 r
b10 q
b0 t
0!
#175000
1A
b1001 ;
b1001 S
b1001 Z
b10000 /
b10000 V
b1 6
b1 Q
b110 ?
b110 @
b110 N
b110 X
b110 [
b110 e
b110 h
b110 k
b110 n
b10001 L
b100 .
b100 K
b100 U
b0 5
b0 H
b0 P
b10000 F
1!
#180000
b1 t
0!
#185000
0A
1R
b10 6
b10 Q
b10 ?
b10 @
b10 N
b10 X
b10 [
b10 e
b10 h
b10 k
b10 n
b1000 /
b1000 V
b1100 ;
b1100 S
b1100 Z
b10010 L
b10 <
b10 E
b10 W
b1 5
b1 H
b1 P
b11 .
b11 K
b11 U
b110 >
b110 B
b110 Y
b10001 F
1!
#190000
b10 t
0!
#195000
0R
1f
b10010 ;
b10010 S
b10010 Z
b1000 6
b1000 Q
b1100 ?
b1100 @
b1100 N
b1100 X
b1100 [
b1100 e
b1100 h
b1100 k
b1100 n
b1 /
b1 V
11
b0 L
b0 <
b0 E
b0 W
b11 5
b11 H
b11 P
b0 .
b0 K
b0 U
b10010 F
b1100 4
b1100 T
1!
#200000
b11 t
0!
#205000
0f
b110 ;
b110 S
b110 Z
b0 6
b0 Q
b0 /
b0 V
b0 ?
b0 @
b0 N
b0 X
b0 [
b0 e
b0 h
b0 k
b0 n
b1 L
01
b111 5
b111 H
b111 P
b111 .
b111 K
b111 U
b1100 -
b1100 g
b100000000000 0
b100000000000 D
b100000000000 d
b111 =
b111 ^
b111 b
b0 F
1!
#210000
b11 u
b101 '
b101 (
b10100100011000000100000011000010110011001110100011001010111001000100000010011010101010101001100001000000111001000110000001011000111001000110001001000000010100000110110001010100011001000111101001100010011001000101001 s
b1100 r
b1100 q
b0 t
0!
#215000
b10 L
11
b10 J
b1 F
1!
#220000
b1 t
0!
#225000
1l
b10010 ;
b10010 S
b10010 Z
b100 /
b100 V
b1100 ?
b1100 @
b1100 N
b1100 X
b1100 [
b1100 e
b1100 h
b1100 k
b1100 n
b0 L
b1100 2
b1100 I
13
b10 .
b10 K
b10 U
b101 5
b101 H
b101 P
11
b1100 0
b1100 D
b1100 d
b1000 =
b1000 ^
b1000 b
b10 F
1!
#230000
b10 t
0!
#235000
b110 ;
b110 S
b110 Z
0l
b0 ?
b0 @
b0 N
b0 X
b0 [
b0 e
b0 h
b0 k
b0 n
b0 /
b0 V
b10011 L
01
b0 2
b0 I
03
b111 5
b111 H
b111 P
b111 .
b111 K
b111 U
b0 F
b111001000000000 0
b111001000000000 D
b111001000000000 d
b1001 =
b1001 ^
b1001 b
b1100 +
b1100 m
1!
#240000
b100 u
b110 '
b110 (
b10100100011001000100000011000010110011001110100011001010111001000100000010011000100010001001001001000000111001000110010001011000011000100110010 s
b0 t
0!
#245000
1A
b10010 ;
b10010 S
b10010 Z
b10000 /
b10000 V
b1 6
b1 Q
b1100 ?
b1100 @
b1100 N
b1100 X
b1100 [
b1100 e
b1100 h
b1100 k
b1100 n
b10100 L
b100 .
b100 K
b100 U
b0 5
b0 H
b0 P
b10011 F
1!
#250000
b1 t
0!
#255000
0A
1R
b100 6
b100 Q
b1000 /
b1000 V
b10101 L
b11 <
b11 E
b11 W
b10 5
b10 H
b10 P
b11 .
b11 K
b11 U
b11010 ;
b11010 S
b11010 Z
b10100 F
b1100 >
b1100 B
b1100 Y
1!
#260000
b10 t
0!
#265000
1o
0R
b100110 ;
b100110 S
b100110 Z
b1000 6
b1000 Q
b100000 /
b100000 V
b11010 ?
b11010 @
b11010 N
b11010 X
b11010 [
b11010 e
b11010 h
b11010 k
b11010 n
11
b0 L
b0 <
b0 E
b0 W
b11 5
b11 H
b11 P
b110 .
b110 K
b110 U
b11010 4
b11010 T
b10101 F
1!
#270000
b11 t
0!
#275000
b1100 ;
b1100 S
b1100 Z
0o
b0 6
b0 Q
b0 ?
b0 @
b0 N
b0 X
b0 [
b0 e
b0 h
b0 k
b0 n
b0 /
b0 V
b10110 L
01
b111 5
b111 H
b111 P
b111 .
b111 K
b111 U
b0 F
b1000000110000000 0
b1000000110000000 D
b1000000110000000 d
b1010 =
b1010 ^
b1010 b
b11010 *
b11010 C
b11010 p
1!
#280000
b10 u
b1000 '
b1000 (
b1010011011101000110000101110100011101010111001101011011001100000101110100100000001010000110100001101001011001110110100001100101011100100010100100100000011000010110011001110100011001010111001000100000010000110100110101010000001000000011000100110010001000000111011001110011001000000011000100110010 s
b0 r
b0 q
b0 t
0!
#285000
b1111 ;
b1111 S
b1111 Z
b11 ?
b11 @
b11 N
b11 X
b11 [
b11 e
b11 h
b11 k
b11 n
b0 L
1:
13
b101 5
b101 H
b101 P
b11 2
b11 I
b10110 F
1!
#290000
b1 t
0!
#295000
b1100 ;
b1100 S
b1100 Z
b0 ?
b0 @
b0 N
b0 X
b0 [
b0 e
b0 h
b0 k
b0 n
b11 L
0:
b0 2
b0 I
03
b111 5
b111 H
b111 P
b0 F
b1100000000000 0
b1100000000000 D
b1100000000000 d
b1101 =
b1101 ^
b1101 b
b0 a
b0 `
b1101 _
1!
#300000
b0 t
0!
#305000
b11000 ;
b11000 S
b11000 Z
1l
b1 6
b1 Q
b1100 ?
b1100 @
b1100 N
b1100 X
b1100 [
b1100 e
b1100 h
b1100 k
b1100 n
b100 /
b100 V
11
b0 L
b0 5
b0 H
b0 P
b10 .
b10 K
b10 U
b11 F
1!
#310000
b1 t
0!
#315000
b1100 ;
b1100 S
b1100 Z
0l
b0 6
b0 Q
b0 ?
b0 @
b0 N
b0 X
b0 [
b0 e
b0 h
b0 k
b0 n
b0 /
b0 V
b1 L
01
b111 5
b111 H
b111 P
b111 .
b111 K
b111 U
b0 F
b100000000000 0
b100000000000 D
b100000000000 d
b1110 =
b1110 ^
b1110 b
1!
#320000
b11 u
b1001 '
b1001 (
b1010010001100100010000000111101001000000011000100110010001000000010100001100010011100100110000101101110011000110110100000100000011100110110101101101001011100000111000001100101011001000010000001001100010001000100100100100000011100100011001000101100001110010011100100101001 s
b1100 r
b1100 q
b0 t
0!
#325000
b10 L
11
b1 F
1!
#330000
b1 t
0!
#335000
1l
b10011 ;
b10011 S
b10011 Z
b100 /
b100 V
b111 ?
b111 @
b111 N
b111 X
b111 [
b111 e
b111 h
b111 k
b111 n
b0 L
b111 2
b111 I
13
b10 .
b10 K
b10 U
b101 5
b101 H
b101 P
11
b10 F
b111 0
b111 D
b111 d
b1111 =
b1111 ^
b1111 b
1!
#340000
b10 t
0!
#345000
0l
b1100 ;
b1100 S
b1100 Z
b0 /
b0 V
b0 ?
b0 @
b0 N
b0 X
b0 [
b0 e
b0 h
b0 k
b0 n
b10011 L
01
b0 2
b0 I
03
b111 5
b111 H
b111 P
b111 .
b111 K
b111 U
b111 +
b111 m
b111001000000000 0
b111001000000000 D
b111001000000000 d
b10000 =
b10000 ^
b10000 b
b0 F
1!
#350000
b100 u
b1010 '
b1010 (
b101001000110010001000000110000101100110011101000110010101110010001000000100110001000100010010010010000001110010001100100010110000110111 s
b111 r
b111 q
b0 t
0!
#355000
1A
b11000 ;
b11000 S
b11000 Z
b10000 /
b10000 V
b1 6
b1 Q
b1100 ?
b1100 @
b1100 N
b1100 X
b1100 [
b1100 e
b1100 h
b1100 k
b1100 n
b10100 L
b100 .
b100 K
b100 U
b0 5
b0 H
b0 P
b10011 F
1!
#360000
b1 t
0!
#365000
0A
1R
b11001 ;
b11001 S
b11001 Z
b100 6
b100 Q
b111 ?
b111 @
b111 N
b111 X
b111 [
b111 e
b111 h
b111 k
b111 n
b1000 /
b1000 V
b10101 L
b11 <
b11 E
b11 W
b10 5
b10 H
b10 P
b11 .
b11 K
b11 U
b10100 F
1!
#370000
b10 t
0!
#375000
1o
0R
b100101 ;
b100101 S
b100101 Z
b1000 6
b1000 Q
b11001 ?
b11001 @
b11001 N
b11001 X
b11001 [
b11001 e
b11001 h
b11001 k
b11001 n
b100000 /
b100000 V
11
b0 L
b0 <
b0 E
b0 W
b11 5
b11 H
b11 P
b110 .
b110 K
b110 U
b10101 F
b11001 4
b11001 T
1!
#380000
b11 t
0!
#385000
b1100 ;
b1100 S
b1100 Z
0o
b0 6
b0 Q
b0 ?
b0 @
b0 N
b0 X
b0 [
b0 e
b0 h
b0 k
b0 n
b0 /
b0 V
b10111 L
01
b111 5
b111 H
b111 P
b111 .
b111 K
b111 U
b11001 *
b11001 C
b11001 p
b1001000100000000 0
b1001000100000000 D
b1001000100000000 d
b10001 =
b10001 ^
b10001 b
b0 F
1!
#390000
b10 u
b1100 '
b1100 (
b101001101110100011000010111010001110101011100110101101100110001010111010010000000101000011001010111000101110101011000010110110000101001001000000110000101100110011101000110010101110010001000000100001101001101010100000010000000110001001100100010000001110110011100110010000000110111 s
b0 r
b0 q
b0 t
0!
#395000
b1110 ;
b1110 S
b1110 Z
b10 ?
b10 @
b10 N
b10 X
b10 [
b10 e
b10 h
b10 k
b10 n
b0 L
1:
13
b101 5
b101 H
b101 P
b10 2
b10 I
b10111 F
1!
#400000
b1 t
0!
#405000
b1100 ;
b1100 S
b1100 Z
b0 ?
b0 @
b0 N
b0 X
b0 [
b0 e
b0 h
b0 k
b0 n
b11 L
0:
b0 2
b0 I
03
b111 5
b111 H
b111 P
b1010000000000 0
b1010000000000 D
b1010000000000 d
b10011 =
b10011 ^
b10011 b
b0 F
b10011 _
1!
#410000
b0 t
0!
#415000
b11000 ;
b11000 S
b11000 Z
1i
b1 6
b1 Q
b1100 ?
b1100 @
b1100 N
b1100 X
b1100 [
b1100 e
b1100 h
b1100 k
b1100 n
b10 /
b10 V
11
b0 L
b0 5
b0 H
b0 P
b1 .
b1 K
b1 U
b11 F
1!
#420000
b1 t
0!
#425000
0i
b1100 ;
b1100 S
b1100 Z
b0 6
b0 Q
b0 /
b0 V
b0 ?
b0 @
b0 N
b0 X
b0 [
b0 e
b0 h
b0 k
b0 n
b11001 L
01
b111 5
b111 H
b111 P
b111 .
b111 K
b111 U
b1100 ,
b1100 j
b1011000001010000 0
b1011000001010000 D
b1011000001010000 d
b10100 =
b10100 ^
b10100 b
b0 F
1!
#430000
b1101 '
b1101 (
b1010010001100010010000000111101001000000011000100110010001000000010100001000010010100100100100000100000011100110110101101101001011100000111000001100101011001000010000001110100011011110010000001001101010011110101011000100000011100100011000100101100011100100011000000101001 s
b1100 r
b1100 q
b0 t
0!
#435000
b11000 ;
b11000 S
b11000 Z
b1 6
b1 Q
b1100 ?
b1100 @
b1100 N
b1100 X
b1100 [
b1100 e
b1100 h
b1100 k
b1100 n
11
b0 L
17
b0 5
b0 H
b0 P
b101 9
b101 G
b101 M
b11001 F
1!
#440000
b1 t
0!
#445000
b1100 ;
b1100 S
b1100 Z
b0 6
b0 Q
b0 ?
b0 @
b0 N
b0 X
b0 [
b0 e
b0 h
b0 k
b0 n
b11001 L
b0 9
b0 G
b0 M
07
01
b111 5
b111 H
b111 P
b1011100010100000 0
b1011100010100000 D
b1011100010100000 d
b10101 =
b10101 ^
b10101 b
b0 F
bx 8
bx O
1!
#450000
b1110 '
b1110 (
b1100100011011010110010101101101010110110011010101011101001000000110000101100110011101000110010101110010001000000101001101010100001000000111001000110000 s
b0 t
0!
#455000
b10011 ;
b10011 S
b10011 Z
b100 6
b100 Q
b111 ?
b111 @
b111 N
b111 X
b111 [
b111 e
b111 h
b111 k
b111 n
11
b0 L
17
b10 5
b10 H
b10 P
b1010 9
b1010 G
b1010 M
b11001 F
1!
#460000
b1 t
0!
#465000
b1100 ;
b1100 S
b1100 Z
b0 6
b0 Q
b0 ?
b0 @
b0 N
b0 X
b0 [
b0 e
b0 h
b0 k
b0 n
b1 L
b0 9
b0 G
b0 M
07
01
b111 5
b111 H
b111 P
b0 0
b0 D
b0 d
b10110 =
b10110 ^
b10110 b
b0 F
bx 8
bx O
1!
#470000
b11 u
b1111 '
b1111 (
b110010001101101011001010110110101011011001100010011000001011101001000000110000101100110011101000110010101110010001000000101001101010100001000000111001000110010 s
b111 r
b111 q
b0 t
0!
#475000
b10 L
11
b0 J
b1 F
1!
#480000
b1 t
0!
#485000
1f
b1 /
b1 V
b0 L
13
b0 .
b0 K
b0 U
b101 5
b101 H
b101 P
11
b10111 =
b10111 ^
b10111 b
b10 F
1!
#490000
b10 t
0!
#495000
0f
b0 /
b0 V
b1 L
01
03
b111 5
b111 H
b111 P
b111 .
b111 K
b111 U
b0 F
b100000000000 0
b100000000000 D
b100000000000 d
b11000 =
b11000 ^
b11000 b
b0 -
b0 g
1!
#500000
b10000 '
b10000 (
b101001000110000001000000110000101100110011101000110010101110010001000000100110001000100010010010010000001110010001100000010110000110000 s
b0 r
b0 q
b0 t
0!
#505000
b10 L
11
b10 J
b1 F
1!
#510000
b1 t
0!
#515000
1l
b100 /
b100 V
b0 L
13
b10 .
b10 K
b10 U
b101 5
b101 H
b101 P
11
b10 F
b0 0
b0 D
b0 d
b11001 =
b11001 ^
b11001 b
1!
#520000
b10 t
0!
#525000
0l
b0 /
b0 V
b11000 L
01
03
b111 5
b111 H
b111 P
b111 .
b111 K
b111 U
b0 +
b0 m
b1010000001010000 0
b1010000001010000 D
b1010000001010000 d
b11010 =
b11010 ^
b11010 b
b0 F
1!
#530000
b10 u
b10001 '
b10001 (
b101001000110010001000000110000101100110011101000110010101110010001000000100110001000100010010010010000001110010001100100010110000110000 s
b0 t
0!
#535000
1f
b11000 ;
b11000 S
b11000 Z
b1 /
b1 V
b100000 6
b100000 Q
b1100 ?
b1100 @
b1100 N
b1100 X
b1100 [
b1100 e
b1100 h
b1100 k
b1100 n
11
b0 L
b0 .
b0 K
b0 U
b110 5
b110 H
b110 P
b1100 8
b1100 O
b101 9
b101 G
b101 M
b11000 F
1!
#540000
b1 t
0!
#545000
0f
b1100 ;
b1100 S
b1100 Z
b0 6
b0 Q
b0 /
b0 V
b0 ?
b0 @
b0 N
b0 X
b0 [
b0 e
b0 h
b0 k
b0 n
b11000 L
bx 8
bx O
b0 9
b0 G
b0 M
01
b111 5
b111 H
b111 P
b111 .
b111 K
b111 U
b1100 -
b1100 g
b1010100010100000 0
b1010100010100000 D
b1010100010100000 d
b11011 =
b11011 ^
b11011 b
b0 F
1!
#550000
b10010 '
b10010 (
b1010010001100000010000001100001011001100111010001100101011100100010000001001100010001000010000001110010001100000010110001100100011011010110010101101101010110110011010101011101001000000010100001110011011010000110111101110101011011000110010000100000011000100110010100100000001100010011001000101001 s
b1100 r
b1100 q
b0 t
0!
#555000
1l
b10011 ;
b10011 S
b10011 Z
b100 /
b100 V
b100000 6
b100000 Q
b111 ?
b111 @
b111 N
b111 X
b111 [
b111 e
b111 h
b111 k
b111 n
11
b0 L
b10 .
b10 K
b10 U
b110 5
b110 H
b110 P
b111 8
b111 O
b1010 9
b1010 G
b1010 M
b11000 F
1!
#560000
b1 t
0!
#565000
0l
b1100 ;
b1100 S
b1100 Z
b0 6
b0 Q
b0 /
b0 V
b0 ?
b0 @
b0 N
b0 X
b0 [
b0 e
b0 h
b0 k
b0 n
b11010 L
bx 8
bx O
b0 9
b0 G
b0 M
01
b111 5
b111 H
b111 P
b111 .
b111 K
b111 U
b111 +
b111 m
b1100000110000000 0
b1100000110000000 D
b1100000110000000 d
b11100 =
b11100 ^
b11100 b
b0 F
1!
#570000
b10011 '
b10011 (
b1010010001100100010000001100001011001100111010001100101011100100010000001001100010001000010000001110010001100100010110001100100011011010110010101101101010110110011000100110000010111010010000000101000011100110110100001101111011101010110110001100100001000000110001001100101001000000011011100101001 s
b111 r
b111 q
b0 t
0!
#575000
b1111 ;
b1111 S
b1111 Z
b11 ?
b11 @
b11 N
b11 X
b11 [
b11 e
b11 h
b11 k
b11 n
b0 L
1:
13
b101 5
b101 H
b101 P
b11 2
b11 I
b11010 F
1!
#580000
b1 t
0!
#585000
b1100 ;
b1100 S
b1100 Z
b0 ?
b0 @
b0 N
b0 X
b0 [
b0 e
b0 h
b0 k
b0 n
b1 L
0:
b0 2
b0 I
03
b111 5
b111 H
b111 P
b0 0
b0 D
b0 d
b11111 =
b11111 ^
b11111 b
b0 F
b11111 _
1!
#590000
b11 u
b0 t
0!
#595000
b10 L
11
b0 J
b1 F
1!
#600000
b1 t
0!
#605000
1f
b1100100 ;
b1100100 S
b1100100 Z
b1 /
b1 V
b1011000 ?
b1011000 @
b1011000 N
b1011000 X
b1011000 [
b1011000 e
b1011000 h
b1011000 k
b1011000 n
b0 L
b1011000 2
b1011000 I
13
b0 .
b0 K
b0 U
b101 5
b101 H
b101 P
11
b1011000 0
b1011000 D
b1011000 d
b100000 =
b100000 ^
b100000 b
b10 F
1!
#610000
b10 t
0!
#615000
b1100 ;
b1100 S
b1100 Z
0f
b0 ?
b0 @
b0 N
b0 X
b0 [
b0 e
b0 h
b0 k
b0 n
b0 /
b0 V
01
b0 2
b0 I
03
b111 5
b111 H
b111 P
b111 .
b111 K
b111 U
b0 F
bx 0
bx D
bx d
b100001 =
b100001 ^
b100001 b
b1011000 -
b1011000 g
1!
#620000
b10101 '
b10101 (
b1010010001100010010000000111101001000000011000100110010001000000010100001001010010011010101000000100000011100110110101101101001011100000111000001100101011001000010000001001100010001000100100100100000011100100011000100101100001110010011100100101001 s
b1100 r
b1100 q
b11 t
0!
